{
  "compilerOptions": {
    "paths": {
      "@/*": ["./src/*"],
      "components/*": ["./src/components/*"],
      "services/*": ["./src/services/*"],
      "views/*": ["./src/views/*"],
    }
  },
  "exclude": ["node_modules", "dist"]
}
